…
``` r
pups_df = janitor::clean_names(pups_df)
```

### Select

``` r
select(litters_df, group, litter_number, gd0_weight, pups_born_alive)
```

    ## # A tibble: 49 × 4
    ##   group litter_number gd0_weight pups_born_alive
    ##   <chr> <chr>              <dbl>           <dbl>
    ## 1 Con7  #85                 19.7               3
    ## 2 Con7  #1/2/95/2           27                 8
    ## 3 Con7  #5/5/3/83/3-3       26                 6
    ## # … with 46 more rows

``` r
select( litters_df, group:gd_of_birth)
```

    ## # A tibble: 49 × 5
    ##   group litter_number gd0_weight gd18_weight gd_of_birth
    ##   <chr> <chr>              <dbl>       <dbl>       <dbl>
    ## 1 Con7  #85                 19.7        34.7          20
    ## 2 Con7  #1/2/95/2           27          42            19
    ## 3 Con7  #5/5/3/83/3-3       26          41.4          19
    ## # … with 46 more rows

``` r
select(litters_df, -pups_survive)
```

    ## # A tibble: 49 × 7
    ##   group litter_number gd0_weight gd18_weight gd_of_birth pups_born_alive pups_…¹
    ##   <chr> <chr>              <dbl>       <dbl>       <dbl>           <dbl>   <dbl>
    ## 1 Con7  #85                 19.7        34.7          20               3       4
    ## 2 Con7  #1/2/95/2           27          42            19               8       0
    ## 3 Con7  #5/5/3/83/3-3       26          41.4          19               6       0
    ## # … with 46 more rows, and abbreviated variable name ¹​pups_dead_birth

\#how to remove variables from the dataset/collapse them

``` r
select(litters_df, -pups_survive, -group)
```

    ## # A tibble: 49 × 6
    ##   litter_number gd0_weight gd18_weight gd_of_birth pups_born_alive pups_dead_b…¹
    ##   <chr>              <dbl>       <dbl>       <dbl>           <dbl>         <dbl>
    ## 1 #85                 19.7        34.7          20               3             4
    ## 2 #1/2/95/2           27          42            19               8             0
    ## 3 #5/5/3/83/3-3       26          41.4          19               6             0
    ## # … with 46 more rows, and abbreviated variable name ¹​pups_dead_birth

# how to get rid of multiple variables

``` r
select(litters_df, GROUP = group, LiTtEr_NuMbEr = litter_number)
```

    ## # A tibble: 49 × 2
    ##   GROUP LiTtEr_NuMbEr
    ##   <chr> <chr>        
    ## 1 Con7  #85          
    ## 2 Con7  #1/2/95/2    
    ## 3 Con7  #5/5/3/83/3-3
    ## # … with 46 more rows

# when renaming the orignial names is one the righ hand and the new name is on the left

\#sometimes you dont need to use select but rather rename

``` r
rename(litters_df, GROUP = group, LiTtEr_NuMbEr = litter_number)
```

    ## # A tibble: 49 × 8
    ##   GROUP LiTtEr_NuMbEr gd0_weight gd18_weight gd_of_birth pups_…¹ pups_…² pups_…³
    ##   <chr> <chr>              <dbl>       <dbl>       <dbl>   <dbl>   <dbl>   <dbl>
    ## 1 Con7  #85                 19.7        34.7          20       3       4       3
    ## 2 Con7  #1/2/95/2           27          42            19       8       0       7
    ## 3 Con7  #5/5/3/83/3-3       26          41.4          19       6       0       5
    ## # … with 46 more rows, and abbreviated variable names ¹​pups_born_alive,
    ## #   ²​pups_dead_birth, ³​pups_survive

``` r
select(litters_df, starts_with("gd"))
```

    ## # A tibble: 49 × 3
    ##   gd0_weight gd18_weight gd_of_birth
    ##        <dbl>       <dbl>       <dbl>
    ## 1       19.7        34.7          20
    ## 2       27          42            19
    ## 3       26          41.4          19
    ## # … with 46 more rows

``` r
select(litters_df, ends_with ("weight"))
```

    ## # A tibble: 49 × 2
    ##   gd0_weight gd18_weight
    ##        <dbl>       <dbl>
    ## 1       19.7        34.7
    ## 2       27          42  
    ## 3       26          41.4
    ## # … with 46 more rows

# how to select certain variable in shorthand

``` r
select(litters_df, litter_number, pups_survive, everything())
```

    ## # A tibble: 49 × 8
    ##   litter_number pups_survive group gd0_weight gd18_wei…¹ gd_of…² pups_…³ pups_…⁴
    ##   <chr>                <dbl> <chr>      <dbl>      <dbl>   <dbl>   <dbl>   <dbl>
    ## 1 #85                      3 Con7        19.7       34.7      20       3       4
    ## 2 #1/2/95/2                7 Con7        27         42        19       8       0
    ## 3 #5/5/3/83/3-3            5 Con7        26         41.4      19       6       0
    ## # … with 46 more rows, and abbreviated variable names ¹​gd18_weight,
    ## #   ²​gd_of_birth, ³​pups_born_alive, ⁴​pups_dead_birth
…
